…
``` r
# 시군별로 주차장수 종류별 주차장 수와 그의 합계 total 변수 생성
df_4<- df_test %>%
  group_by(시군별) %>%
  select(X2021_노상.유료.,X2021_노상.무료.,X2021_노외.공영.,X2021_노외.민영.) %>%
  mutate(total = X2021_노상.유료.+ X2021_노상.무료.+X2021_노외.공영.+X2021_노외.민영.)
```

    ## Adding missing grouping variables: `시군별`

``` r
df_4
```

    ## # A tibble: 31 × 6
    ## # Groups:   시군별 [31]
    ##    시군별 X2021_노상.유료. X2021_노상.무료. X2021_노외.공영. X2021_노외.민영.
    ##    <chr>             <int>            <int>            <int>            <int>
    ##  1 수원시              865              170               79              233
    ##  2 성남시              143              183              287               46
    ##  3 안양시               25              464               75               22
    ##  4 부천시              303                6              170               60
    ##  5 광명시                9                2               19               31
    ##  6 평택시               11               59               68              147
    ##  7 안산시               17              188              233               23
    ##  8 과천시               20                9               79                1
    ##  9 오산시                2               62               43               43
    ## 10 시흥시                9               17              114               46
    ## # ℹ 21 more rows
    ## # ℹ 1 more variable: total <int>
…
    ## Adding missing grouping variables: `시군별`

``` r
df_5
```

    ## # A tibble: 31 × 7
    ## # Groups:   시군별 [31]
    ##    시군별    free rate_free   pay rate_pay total city    
    ##    <chr>    <int>     <dbl> <int>    <dbl> <int> <fct>   
    ##  1 가평군      36      70.6    15    29.4     51 가평군  
    ##  2 고양시      66      42.9    88    57.1    154 고양시  
    ##  3 과천시      88      80.7    21    19.3    109 과천시  
    ##  4 광명시      21      34.4    40    65.6     61 광명시  
    ##  5 광주시      32      61.5    20    38.5     52 광주시  
    ##  6 구리시      12      15.2    67    84.8     79 구리시  
    ##  7 군포시      61      74.4    21    25.6     82 군포시  
    ##  8 김포시      45      54.9    37    45.1     82 김포시  
    ##  9 남양주시    68      53.5    59    46.5    127 남양주시
    ## 10 동두천시    49      90.7     5     9.26    54 동두천시
    ## # ℹ 21 more rows
…
    ## Adding missing grouping variables: `남부_북부`

``` r
df_6
```

    ## # A tibble: 31 × 4
    ## # Groups:   남부_북부 [2]
    ##    남부_북부   pay  free 시군별
    ##    <chr>     <int> <int> <chr> 
    ##  1 남부       1098   249 수원시
    ##  2 남부        189   470 성남시
    ##  3 남부         47   539 안양시
    ##  4 남부        363   176 부천시
    ##  5 남부         40    21 광명시
    ##  6 남부        158   127 평택시
    ##  7 남부         40   421 안산시
    ##  8 남부         21    88 과천시
    ##  9 남부         45   105 오산시
    ## 10 남부         55   131 시흥시
    ## # ℹ 21 more rows
…
